…
## Vantagens

A grande vantagem do pipe não é só enxergar quais funções são aplicadas
primeiro, mas sim nos ajudar a programar pipelines ("encanamento" em inglês) de
tratamentos de dados.

```r
library(dplyr)

starwars %>% 
  mutate(bmi = mass/((height/100)^2)) %>%
  select(name, bmi, species) %>%
  group_by(species) %>%
  summarise(bmi = mean(bmi))
#> # A tibble: 38 x 2
#>    species     bmi
#>    <chr>     <dbl>
#>  1 Aleena     24.0
#>  2 Besalisk   26.0
#>  3 Cerean     20.9
#>  4 Chagrian   NA  
#>  5 Clawdite   19.5
#>  6 Droid      NA  
#>  7 Dug        31.9
#>  8 Ewok       25.8
#>  9 Geonosian  23.9
#> 10 Gungan     NA  
#> # ... with 28 more rows
```
…
